{
    "data": [ 
        {
            "enterpriseId": "1",
            "enterpriseName": "KRUGER CORPORATION"
        },
        {
            "enterpriseId": "2",
            "enterpriseName": "PRONACA"
        },
        {
            "enterpriseId": "3",
            "enterpriseName": "CORPORACION LA FAVORITA"
        }
    ]
}